{
  "properties": [
    {
      "name": "spring.jpa.properties.hibernate.format_sql",
      "type": "kotlin.Boolean",
      "description": ""
    },
    {
      "name": "spring.jpa.properties.hibernate.generate_statistics",
      "type": "kotlin.Boolean",
      "description": ""
    },
    {
      "name": "spring.jpa.properties.hibernate.query.immutable_entity_update_query_handling_mode",
      "type": "kotlin.String",
      "description": ""
    }
  ]
}
